Auto-tagging posts + the nDH metric – Dan Hicks
…
str(dataf)

tibble [86 × 3] (S3: tbl_df/tbl/data.frame)
 $ path    : chr [1:86] "/Users/danhicks/Google Drive/Coding/website/posts/2012-03-14-friedersdorf-the-sex-friendly-case-against-free-bi"| __truncated__ "/Users/danhicks/Google Drive/Coding/website/posts/2012-03-14-friedersdorf-the-sex-friendly-case-against-free-bi"| __truncated__ "/Users/danhicks/Google Drive/Coding/website/posts/2012-04-21-the-agroecological-argument-for-eating-meat.md" "/Users/danhicks/Google Drive/Coding/website/posts/2012-05-23-fetishism-and-innate-differences.md" ...
 $ post_id : int [1:86] 1 2 3 4 5 6 7 8 9 10 ...
 $ raw_text: chr [1:86] "---\ntitle: \"Friedersdorf: The Sex-Friendly Case Against Free Birth Control, part I\"\ndate: \"2012-03-14\"\nc"| __truncated__ "---\nlayout: post\ntitle: \"Friedersdorf: The Sex-Friendly Case Against Free Birth Control, part II\"\ndate: \""| __truncated__ "---\nlayout: post\ntitle: \"The Agroecological Argument for Eating Meat\"\ndate: \"2012-04-21\"\ncategories: [d"| __truncated__ "---\nlayout: post\ntitle: \"Fetishism and Innate Differences\"\ndate: \"2012-05-23\"\n---\n\n\n(Going through m"| __truncated__ ...

Next we use tidytext to parse the text of each post into individual terms or tokens.

tokens_df = unnest_tokens(dataf, token, raw_text)
tokens_df

# A tibble: 106,705 × 3
   path                                                            post_id token
   <chr>                                                             <int> <chr>
 1 /Users/danhicks/Google Drive/Coding/website/posts/2012-03-14-f…       1 title
 2 /Users/danhicks/Google Drive/Coding/website/posts/2012-03-14-f…       1 frie…
 3 /Users/danhicks/Google Drive/Coding/website/posts/2012-03-14-f…       1 the  
 4 /Users/danhicks/Google Drive/Coding/website/posts/2012-03-14-f…       1 sex  
 5 /Users/danhicks/Google Drive/Coding/website/posts/2012-03-14-f…       1 frie…
 6 /Users/danhicks/Google Drive/Coding/website/posts/2012-03-14-f…       1 case 
 7 /Users/danhicks/Google Drive/Coding/website/posts/2012-03-14-f…       1 agai…
 8 /Users/danhicks/Google Drive/Coding/website/posts/2012-03-14-f…       1 free 
 9 /Users/danhicks/Google Drive/Coding/website/posts/2012-03-14-f…       1 birth
10 /Users/danhicks/Google Drive/Coding/website/posts/2012-03-14-f…       1 cont…
# ℹ 106,695 more rows
…
Joining with `by = join_by(path, post_id)`

# A tibble: 73 × 8
# Rowwise: 
   path                       post_id null  header body  tags  tags_str combined
   <chr>                        <int> <chr> <chr>  <chr> <lis> <chr>    <chr>   
 1 /Users/danhicks/Google Dr…       1 ""    "\nti… "\n\… <chr> categor… "---\nt…
 2 /Users/danhicks/Google Dr…       2 ""    "\nla… "\n\… <chr> categor… "---\nl…
 3 /Users/danhicks/Google Dr…       3 ""    "\nla… "\n\… <chr> categor… "---\nl…
 4 /Users/danhicks/Google Dr…       4 ""    "\nla… "\n\… <chr> categor… "---\nl…
 5 /Users/danhicks/Google Dr…       5 ""    "\nla… "\n\… <chr> categor… "---\nl…
 6 /Users/danhicks/Google Dr…       6 ""    "\nla… "\n\… <chr> categor… "---\nl…
 7 /Users/danhicks/Google Dr…       7 ""    "\nla… "\n\… <chr> categor… "---\nl…
 8 /Users/danhicks/Google Dr…       8 ""    "\nla… "\n\… <chr> categor… "---\nl…
 9 /Users/danhicks/Google Dr…       9 ""    "\nla… "\n\… <chr> categor… "---\nl…
10 /Users/danhicks/Google Dr…      10 ""    "\nla… "\n\… <chr> categor… "---\nl…
# ℹ 63 more rows
…
